Grammar

    0 $accept: tmsp $end

    1 tmsp: /* empty */
    2     | declarations

    3 declarations: declaration T_LINE_SEP
    4             | declarations declaration T_LINE_SEP

    5 declaration: /* empty */
    6            | 'R' T_INT T_INT T_STRING
    7            | 'T' T_INT T_INT T_INT T_STRING
    8            | 'J' T_INT T_INT T_INT T_STRING
    9            | 'A' T_INT T_INT T_INT T_STRING
   10            | 'Q' T_INT T_INT T_INT T_INT
   11            | 'P' T_INT T_INT T_INT T_INT
   12            | 'p' T_INT T_INT T_INT T_INT


Terminals, with rules where they appear

$end (0) 0
'A' (65) 9
'J' (74) 8
'P' (80) 11
'Q' (81) 10
'R' (82) 6
'T' (84) 7
'p' (112) 12
error (256)
T_INT (258) 6 7 8 9 10 11 12
T_STRING (259) 6 7 8 9
T_LINE_SEP (260) 3 4


Nonterminals, with rules where they appear

$accept (13)
    on left: 0
tmsp (14)
    on left: 1 2, on right: 0
declarations (15)
    on left: 3 4, on right: 2 4
declaration (16)
    on left: 5 6 7 8 9 10 11 12, on right: 3 4


state 0

    0 $accept: . tmsp $end

    'R'  shift, and go to state 1
    'T'  shift, and go to state 2
    'J'  shift, and go to state 3
    'A'  shift, and go to state 4
    'Q'  shift, and go to state 5
    'P'  shift, and go to state 6
    'p'  shift, and go to state 7

    T_LINE_SEP  reduce using rule 5 (declaration)
    $default    reduce using rule 1 (tmsp)

    tmsp          go to state 8
    declarations  go to state 9
    declaration   go to state 10


state 1

    6 declaration: 'R' . T_INT T_INT T_STRING

    T_INT  shift, and go to state 11


state 2

    7 declaration: 'T' . T_INT T_INT T_INT T_STRING

    T_INT  shift, and go to state 12


state 3

    8 declaration: 'J' . T_INT T_INT T_INT T_STRING

    T_INT  shift, and go to state 13


state 4

    9 declaration: 'A' . T_INT T_INT T_INT T_STRING

    T_INT  shift, and go to state 14


state 5

   10 declaration: 'Q' . T_INT T_INT T_INT T_INT

    T_INT  shift, and go to state 15


state 6

   11 declaration: 'P' . T_INT T_INT T_INT T_INT

    T_INT  shift, and go to state 16


state 7

   12 declaration: 'p' . T_INT T_INT T_INT T_INT

    T_INT  shift, and go to state 17


state 8

    0 $accept: tmsp . $end

    $end  shift, and go to state 18


state 9

    2 tmsp: declarations .
    4 declarations: declarations . declaration T_LINE_SEP

    'R'  shift, and go to state 1
    'T'  shift, and go to state 2
    'J'  shift, and go to state 3
    'A'  shift, and go to state 4
    'Q'  shift, and go to state 5
    'P'  shift, and go to state 6
    'p'  shift, and go to state 7

    T_LINE_SEP  reduce using rule 5 (declaration)
    $default    reduce using rule 2 (tmsp)

    declaration  go to state 19


state 10

    3 declarations: declaration . T_LINE_SEP

    T_LINE_SEP  shift, and go to state 20


state 11

    6 declaration: 'R' T_INT . T_INT T_STRING

    T_INT  shift, and go to state 21


state 12

    7 declaration: 'T' T_INT . T_INT T_INT T_STRING

    T_INT  shift, and go to state 22


state 13

    8 declaration: 'J' T_INT . T_INT T_INT T_STRING

    T_INT  shift, and go to state 23


state 14

    9 declaration: 'A' T_INT . T_INT T_INT T_STRING

    T_INT  shift, and go to state 24


state 15

   10 declaration: 'Q' T_INT . T_INT T_INT T_INT

    T_INT  shift, and go to state 25


state 16

   11 declaration: 'P' T_INT . T_INT T_INT T_INT

    T_INT  shift, and go to state 26


state 17

   12 declaration: 'p' T_INT . T_INT T_INT T_INT

    T_INT  shift, and go to state 27


state 18

    0 $accept: tmsp $end .

    $default  accept


state 19

    4 declarations: declarations declaration . T_LINE_SEP

    T_LINE_SEP  shift, and go to state 28


state 20

    3 declarations: declaration T_LINE_SEP .

    $default  reduce using rule 3 (declarations)


state 21

    6 declaration: 'R' T_INT T_INT . T_STRING

    T_STRING  shift, and go to state 29


state 22

    7 declaration: 'T' T_INT T_INT . T_INT T_STRING

    T_INT  shift, and go to state 30


state 23

    8 declaration: 'J' T_INT T_INT . T_INT T_STRING

    T_INT  shift, and go to state 31


state 24

    9 declaration: 'A' T_INT T_INT . T_INT T_STRING

    T_INT  shift, and go to state 32


state 25

   10 declaration: 'Q' T_INT T_INT . T_INT T_INT

    T_INT  shift, and go to state 33


state 26

   11 declaration: 'P' T_INT T_INT . T_INT T_INT

    T_INT  shift, and go to state 34


state 27

   12 declaration: 'p' T_INT T_INT . T_INT T_INT

    T_INT  shift, and go to state 35


state 28

    4 declarations: declarations declaration T_LINE_SEP .

    $default  reduce using rule 4 (declarations)


state 29

    6 declaration: 'R' T_INT T_INT T_STRING .

    $default  reduce using rule 6 (declaration)


state 30

    7 declaration: 'T' T_INT T_INT T_INT . T_STRING

    T_STRING  shift, and go to state 36


state 31

    8 declaration: 'J' T_INT T_INT T_INT . T_STRING

    T_STRING  shift, and go to state 37


state 32

    9 declaration: 'A' T_INT T_INT T_INT . T_STRING

    T_STRING  shift, and go to state 38


state 33

   10 declaration: 'Q' T_INT T_INT T_INT . T_INT

    T_INT  shift, and go to state 39


state 34

   11 declaration: 'P' T_INT T_INT T_INT . T_INT

    T_INT  shift, and go to state 40


state 35

   12 declaration: 'p' T_INT T_INT T_INT . T_INT

    T_INT  shift, and go to state 41


state 36

    7 declaration: 'T' T_INT T_INT T_INT T_STRING .

    $default  reduce using rule 7 (declaration)


state 37

    8 declaration: 'J' T_INT T_INT T_INT T_STRING .

    $default  reduce using rule 8 (declaration)


state 38

    9 declaration: 'A' T_INT T_INT T_INT T_STRING .

    $default  reduce using rule 9 (declaration)


state 39

   10 declaration: 'Q' T_INT T_INT T_INT T_INT .

    $default  reduce using rule 10 (declaration)


state 40

   11 declaration: 'P' T_INT T_INT T_INT T_INT .

    $default  reduce using rule 11 (declaration)


state 41

   12 declaration: 'p' T_INT T_INT T_INT T_INT .

    $default  reduce using rule 12 (declaration)
